<?xml version="1.0" encoding="UTF-8" standalone="no"?>
<svg
   version="1.1"
   x="0px"
   y="0px"
   viewBox="0 0 1175.058 1487.975"
   enable-background="new 0 0 2000 2000"
   xml:space="preserve"
   id="svg4"
   sodipodi:docname="noun-compass-5559757.svg"
   width="1175.058"
   height="1487.975"
   inkscape:version="1.3.2 (091e20ef0f, 2023-11-25)"
   xmlns:inkscape="http://www.inkscape.org/namespaces/inkscape"
   xmlns:x="adobe:ns:meta/"
   xmlns:sodipodi="http://sodipodi.sourceforge.net/DTD/sodipodi-0.dtd"
   xmlns="http://www.w3.org/2000/svg"
   xmlns:svg="http://www.w3.org/2000/svg"><defs
     id="defs4" /><sodipodi:namedview
     id="namedview4"
     pagecolor="#ffffff"
     bordercolor="#000000"
     borderopacity="0.25"
     inkscape:showpageshadow="2"
     inkscape:pageopacity="0.0"
     inkscape:pagecheckerboard="0"
     inkscape:deskcolor="#d1d1d1"
     inkscape:zoom="0.3252"
     inkscape:cx="588.86839"
     inkscape:cy="994.77245"
     inkscape:window-width="1920"
     inkscape:window-height="1011"
     inkscape:window-x="0"
     inkscape:window-y="32"
     inkscape:window-maximized="1"
     inkscape:current-layer="svg4" /><metadata
     id="metadata1"><?xpacket begin="&#65279;" id="W5M0MpCehiHzreSzNTczkc9d"?><x:xmpmeta
       x:xmptk="Adobe XMP Core 5.3-c011 66.145661, 2012/02/06-14:56:27        " /><?xpacket end="w"?></metadata><g
     id="g3"
     style="fill:#2b2bd4;fill-opacity:1;stroke:#000000;stroke-opacity:1"
     transform="translate(-412.471,-256.012)"><path
       d="m 1540.76,928.289 c -29.633,-69.858 -72.021,-132.641 -125.985,-186.606 -53.964,-53.965 -116.748,-96.353 -186.604,-125.986 -5.603,-2.376 -11.234,-4.651 -16.888,-6.846 -12.2,-50.133 -41.482,-92.863 -80.843,-122.413 13.676,-22.803 21.551,-49.465 21.551,-77.935 0,-83.808 -68.183,-151.991 -151.99,-151.991 -83.809,0 -151.993,68.183 -151.993,151.991 0,28.427 7.852,55.052 21.49,77.833 -39.361,29.534 -68.578,72.283 -80.781,122.516 -5.653,2.194 -11.284,4.469 -16.885,6.845 -69.857,29.633 -132.641,72.021 -186.605,125.986 -53.965,53.965 -96.353,116.749 -125.986,186.606 -30.702,72.377 -46.27,149.145 -46.27,228.169 0,79.024 15.567,155.792 46.27,228.169 29.633,69.858 72.021,132.641 125.986,186.605 53.965,53.964 116.748,96.353 186.605,125.985 72.377,30.702 149.144,46.27 228.168,46.27 79.025,0 155.792,-15.567 228.17,-46.27 69.856,-29.633 132.64,-72.021 186.604,-125.985 53.965,-53.964 96.353,-116.747 125.985,-186.605 30.702,-72.377 46.27,-149.145 46.27,-228.169 0,-79.024 -15.567,-155.792 -46.269,-228.169 z M 893.007,408.503 c 0,-58.995 47.997,-106.991 106.993,-106.991 58.994,0 106.99,47.996 106.99,106.991 0,20.001 -5.521,38.734 -15.113,54.765 -28.085,-13.141 -59.283,-20.424 -91.877,-20.424 -32.665,0 -63.865,7.252 -91.925,20.346 -9.563,-16.013 -15.068,-34.718 -15.068,-54.687 z m 165.435,89.575 c -16.812,11.007 -36.892,17.418 -58.442,17.418 -21.575,0 -41.675,-6.425 -58.498,-17.454 18.342,-6.611 38.058,-10.198 58.498,-10.198 20.393,0.001 40.096,3.6 58.442,10.234 z m -160.366,23.081 c 26.98,24.433 62.744,39.337 101.924,39.337 39.142,0 74.872,-14.876 101.843,-39.267 24.206,17.741 43.746,41.703 56.094,69.811 -51.144,-14.359 -104.014,-21.613 -157.937,-21.613 -53.934,0 -106.814,7.257 -157.967,21.622 12.329,-28.16 31.832,-52.15 56.043,-69.89 z M 1000,1698.487 c -298.876,0 -542.029,-243.153 -542.029,-542.029 0,-298.877 243.153,-542.031 542.029,-542.031 298.876,0 542.029,243.154 542.029,542.031 0,298.876 -243.153,542.029 -542.029,542.029 z"
       id="path1"
       style="fill:#2b2bd4;fill-opacity:1;stroke:#000000;stroke-opacity:1" /><path
       d="m 1093.768,1150.677 -72.027,-270.886 c -3.192,-12.01 -15.517,-19.152 -27.526,-15.963 -8.271,2.199 -14.235,8.73 -16.104,16.506 l -71.882,270.343 h 0.002 c -0.979,3.667 -1.048,7.63 -0.002,11.562 l 72.026,270.886 c 2.678,10.072 11.778,16.724 21.73,16.724 1.913,0 3.86,-0.246 5.796,-0.762 8.271,-2.198 14.234,-8.729 16.104,-16.504 l 71.883,-270.344 v -10e-4 c 0.978,-3.668 1.048,-7.631 0,-11.562 z m -93.77,189.097 -42.76,-160.816 h 85.52 z m -42.76,-205.816 42.76,-160.817 42.76,160.817 z"
       id="path2"
       style="fill:#2b2bd4;fill-opacity:1;stroke:#000000;stroke-opacity:1" /><path
       d="m 1447.244,967.739 c -24.509,-57.776 -59.564,-109.7 -104.194,-154.331 -44.63,-44.63 -96.554,-79.686 -154.33,-104.194 -58.403,-24.774 -120.261,-37.628 -183.936,-38.242 -1.542,-0.334 -3.142,-0.515 -4.784,-0.515 -1.642,0 -3.242,0.181 -4.784,0.515 -63.674,0.613 -125.532,13.467 -183.934,38.242 -57.776,24.508 -109.7,59.564 -154.33,104.194 -44.63,44.63 -79.686,96.555 -104.194,154.331 -25.395,59.864 -38.271,123.358 -38.271,188.719 0,65.359 12.876,128.853 38.271,188.718 24.508,57.775 59.564,109.699 104.194,154.329 44.63,44.63 96.554,79.686 154.33,104.194 59.864,25.395 123.358,38.271 188.718,38.271 65.359,0 128.854,-12.876 188.72,-38.271 57.775,-24.509 109.7,-59.564 154.33,-104.194 44.63,-44.63 79.686,-96.554 104.194,-154.329 25.395,-59.864 38.271,-123.358 38.271,-188.718 0,-65.36 -12.876,-128.854 -38.271,-188.719 z M 1022.5,1596.401 v -61.652 c 0,-12.427 -10.074,-22.5 -22.5,-22.5 -12.426,0 -22.5,10.073 -22.5,22.5 v 61.652 C 751.593,1584.98 570.034,1402.579 559.938,1176.331 h 59.142 c 12.426,0 22.5,-10.073 22.5,-22.5 0,-12.427 -10.074,-22.5 -22.5,-22.5 H 560.204 C 572.851,907.519 753.344,727.844 977.5,716.512 v 56.401 c 0,12.426 10.074,22.5 22.5,22.5 12.426,0 22.5,-10.074 22.5,-22.5 v -56.401 c 224.156,11.332 404.65,191.006 417.298,414.819 h -58.88 c -12.427,0 -22.5,10.073 -22.5,22.5 0,12.427 10.073,22.5 22.5,22.5 h 59.146 c -10.096,226.248 -191.657,408.649 -417.564,420.07 z"
       id="path3"
       style="fill:#2b2bd4;fill-opacity:1;stroke:#000000;stroke-opacity:1" /></g></svg>
